{
	"schemaVersion": 1,
	"id": "voidborn",
	"version": "${version}",
	"name": "Voidborn",
	"description": "A Minecraft mod based around the void.",
	"authors": [
		"naomieow"
	],
	"contact": {
		"homepage": "https://modrinth.com/project/voidborn",
		"sources": "https://codeberg.org/naomieow/voidborn"
	},
	"license": "LGPL-3.0-only",
	"icon": "assets/voidborn/icon.png",
	"environment": "*",
	"entrypoints": {
		"main": [
			"xyz.naomieow.Voidborn"
		],
		"client": [
			"xyz.naomieow.VoidbornClient"
		],
		"fabric-datagen": [
			"xyz.naomieow.VoidbornDataGenerator"
		]
	},
	"mixins": [
		"voidborn.mixins.json",
		{
			"config": "voidborn.client.mixins.json",
			"environment": "client"
		}
	],
	"depends": {
		"fabricloader": ">=0.15.5",
		"minecraft": "~1.20.4",
		"java": ">=17",
		"fabric-api": "*"
	},
	"suggests": {
		"another-mod": "*"
	}
}